{
  "Version": "2012-10-17",
  "Statement": [
    {
      "Sid": "Stmt1584615213091",
      "Action": [
        "s3:PutObject"
      ],
      "Effect": "Allow",
      "Resource": "arn:aws:s3:::${bucket_name}/*"
    }
  ]
}
